<?xml version="1.0" encoding="UTF-8"?>
<svg width="26px" height="50px" viewBox="0 0 26 50" version="1.1" xmlns="http://www.w3.org/2000/svg" xmlns:xlink="http://www.w3.org/1999/xlink">
    <!-- Generator: Sketch 46.1 (44463) - http://www.bohemiancoding.com/sketch -->
    <title>Rectangle</title>
    <desc>Created with Sketch.</desc>
    <defs></defs>
    <g id="Page-1" stroke="none" stroke-width="1" fill="none" fill-rule="evenodd">
        <polyline id="Rectangle" stroke="#000000" transform="translate(13.000000, 25.000000) scale(-1, 1) translate(-13.000000, -25.000000) " points="0.5 0 25.5 25 0.5 50"></polyline>
    </g>
</svg>